('C:\\Users\\TY\\python\\yodobashic_photo\\build\\ypm_gui\\PKG-00.pkg',
 {'BINARY': 1,
  'DATA': 1,
  'EXECUTABLE': 1,
  'EXTENSION': 1,
  'PYMODULE': 1,
  'PYSOURCE': 1,
  'PYZ': 0},
 [('PYZ-00.pyz',
   'C:\\Users\\TY\\python\\yodobashic_photo\\build\\ypm_gui\\PYZ-00.pyz',
   'PYZ'),
  ('struct',
   'c:\\users\\ty\\appdata\\local\\programs\\python\\python37-32\\lib\\struct.pyo',
   'PYMODULE'),
  ('pyimod01_os_path',
   'c:\\users\\ty\\appdata\\local\\programs\\python\\python37-32\\lib\\site-packages\\PyInstaller\\loader\\pyimod01_os_path.pyc',
   'PYMODULE'),
  ('pyimod02_archive',
   'c:\\users\\ty\\appdata\\local\\programs\\python\\python37-32\\lib\\site-packages\\PyInstaller\\loader\\pyimod02_archive.pyc',
   'PYMODULE'),
  ('pyimod03_importers',
   'c:\\users\\ty\\appdata\\local\\programs\\python\\python37-32\\lib\\site-packages\\PyInstaller\\loader\\pyimod03_importers.pyc',
   'PYMODULE'),
  ('pyiboot01_bootstrap',
   'c:\\users\\ty\\appdata\\local\\programs\\python\\python37-32\\lib\\site-packages\\PyInstaller\\loader\\pyiboot01_bootstrap.py',
   'PYSOURCE'),
  ('pyi_rth_multiprocessing',
   'c:\\users\\ty\\appdata\\local\\programs\\python\\python37-32\\lib\\site-packages\\PyInstaller\\loader\\rthooks\\pyi_rth_multiprocessing.py',
   'PYSOURCE'),
  ('pyi_rth_pkgres',
   'c:\\users\\ty\\appdata\\local\\programs\\python\\python37-32\\lib\\site-packages\\PyInstaller\\loader\\rthooks\\pyi_rth_pkgres.py',
   'PYSOURCE'),
  ('pyi_rth_win32comgenpy',
   'c:\\users\\ty\\appdata\\local\\programs\\python\\python37-32\\lib\\site-packages\\PyInstaller\\loader\\rthooks\\pyi_rth_win32comgenpy.py',
   'PYSOURCE'),
  ('pyi_rth__tkinter',
   'c:\\users\\ty\\appdata\\local\\programs\\python\\python37-32\\lib\\site-packages\\PyInstaller\\loader\\rthooks\\pyi_rth__tkinter.py',
   'PYSOURCE'),
  ('ypm_gui',
   'C:\\Users\\TY\\python\\yodobashic_photo\\ypm_gui.py',
   'PYSOURCE'),
  ('ypm_gui.exe.manifest',
   'C:\\Users\\TY\\python\\yodobashic_photo\\build\\ypm_gui\\ypm_gui.exe.manifest',
   'BINARY')],
 True,
 False,
 False)
